module github.com/dunv/uponorstreamer

go 1.17

require (
	github.com/codingconcepts/env v0.0.0-20200821220118-a8fbf8d84482
	github.com/dunv/ulog v1.0.24
	github.com/influxdata/influxdb-client-go/v2 v2.5.0
)

require (
	github.com/deepmap/oapi-codegen v1.8.2 // indirect
	github.com/dunv/uhelpers v1.0.14 // indirect
	github.com/influxdata/line-protocol v0.0.0-20200327222509-2487e7298839 // indirect
	github.com/pkg/errors v0.9.1 // indirect
	golang.org/x/net v0.0.0-20210119194325-5f4716e94777 // indirect
	gopkg.in/yaml.v2 v2.3.0 // indirect
)
